Getting Started • MplusReadR
…
Creating a Tidy Dataset

The first aim of MplusReadR is to tabulate key output from these Mplus files. Using the default settings will result in a tibble that displays all columns present in the standardized section of the ‘parameters’ section of an Mplus file (as shown in the structure above) to three decimal places (as shown below). Use ?mplus_compile or head to the reference page for mplus_compile to check the default options and learn about ways you can customise output.

tidy_data <- mplus_compile(Mplus_file = models)
tidy_data
#> # A tibble: 216 x 13
#>    dataset dataset_title     T     N paramHeader param est   posterior_sd pval 
#>      <int> <chr>         <dbl> <dbl> <chr>       <chr> <chr> <chr>        <chr>
#>  1       1 1_naAR_CESD    2808    94 NAONNA|NA.~ NA&1  0.20  0.02         0.00 
#>  2       1 1_naAR_CESD    2808    94 NAVAR.|     NA    0.92  0.01         0.00 
#>  3       1 1_naAR_CESD    2808    94 Z.ON        NAON~ 0.35  0.15         0.01 
#>  4       1 1_naAR_CESD    2808    94 Z.ON        NAVAR 0.14  0.11         0.11 
#>  5       1 1_naAR_CESD    2808    94 Z.ON        NA    0.42  0.11         0.00 
#>  6       1 1_naAR_CESD    2808    94 NA.WITH     NAON~ 0.22  0.16         0.10 
#>  7       1 1_naAR_CESD    2808    94 NA.WITH     NAVAR -0.23 0.12         0.03 
#>  8       1 1_naAR_CESD    2808    94 NAONNA.WITH NAVAR -0.13 0.17         0.23 
#>  9       1 1_naAR_CESD    2808    94 Means       NA    2.26  0.21         0.00 
#> 10       1 1_naAR_CESD    2808    94 Means       NAON~ 1.08  0.26         0.00 
#> # ... with 206 more rows, and 4 more variables: lower_2.5ci <chr>,
#> #   upper_2.5ci <chr>, sig <lgl>, BetweenWithin <chr>
…
You can save the html table using the code below. Replace the x with the name of your table and specify the name of the file, ensuring the .html is kept at the end and the line separator (sep) stays the same.

write(x = table, file = "table.html", sep = "\n") 

Example 2: Customising the collated output

There are several ways to customise the collated output created by mplus_compile().

Display Options

There are multiple column display options, which can be toggled using the display parameter. These are display = "minimal" and display = "descriptives".

mplus_compile(Mplus_file = models, display = "minimal")
#> # A tibble: 216 x 7
#>    dataset dataset_title paramHeader  param  est   lower_2.5ci upper_2.5ci
#>      <int> <chr>         <chr>        <chr>  <chr> <chr>       <chr>      
#>  1       1 1_naAR_CESD   NAONNA|NA.ON NA&1   0.20  0.16        0.24       
#>  2       1 1_naAR_CESD   NAVAR.|      NA     0.92  0.90        0.95       
#>  3       1 1_naAR_CESD   Z.ON         NAONNA 0.35  0.06        0.63       
#>  4       1 1_naAR_CESD   Z.ON         NAVAR  0.14  -0.08       0.36       
#>  5       1 1_naAR_CESD   Z.ON         NA     0.42  0.21        0.63       
#>  6       1 1_naAR_CESD   NA.WITH      NAONNA 0.22  -0.10       0.54       
#>  7       1 1_naAR_CESD   NA.WITH      NAVAR  -0.23 -0.45       0.00       
#>  8       1 1_naAR_CESD   NAONNA.WITH  NAVAR  -0.13 -0.46       0.21       
#>  9       1 1_naAR_CESD   Means        NA     2.26  1.84        2.66       
#> 10       1 1_naAR_CESD   Means        NAONNA 1.08  0.63        1.62       
#> # ... with 206 more rows
mplus_compile(Mplus_file = models, display = "descriptives")
#> # A tibble: 216 x 8
#>    dataset_title paramHeader      T     N param  est   lower_2.5ci upper_2.5ci
#>    <chr>         <chr>        <dbl> <dbl> <chr>  <chr> <chr>       <chr>      
#>  1 1_naAR_CESD   NAONNA|NA.ON  2808    94 NA&1   0.20  0.16        0.24       
#>  2 1_naAR_CESD   NAVAR.|       2808    94 NA     0.92  0.90        0.95       
#>  3 1_naAR_CESD   Z.ON          2808    94 NAONNA 0.35  0.06        0.63       
#>  4 1_naAR_CESD   Z.ON          2808    94 NAVAR  0.14  -0.08       0.36       
#>  5 1_naAR_CESD   Z.ON          2808    94 NA     0.42  0.21        0.63       
#>  6 1_naAR_CESD   NA.WITH       2808    94 NAONNA 0.22  -0.10       0.54       
#>  7 1_naAR_CESD   NA.WITH       2808    94 NAVAR  -0.23 -0.45       0.00       
#>  8 1_naAR_CESD   NAONNA.WITH   2808    94 NAVAR  -0.13 -0.46       0.21       
#>  9 1_naAR_CESD   Means         2808    94 NA     2.26  1.84        2.66       
#> 10 1_naAR_CESD   Means         2808    94 NAONNA 1.08  0.63        1.62       
#> # ... with 206 more rows

These can also be found using ?mplus_compile.

Alternatively, you can manually specify which columns are displayed.

mplus_compile(Mplus_file = models, 
              display = c("dataset", "dataset_title", "paramHeader", "param", "est"))
#> # A tibble: 216 x 5
#>    dataset dataset_title paramHeader  param  est  
#>      <int> <chr>         <chr>        <chr>  <chr>
#>  1       1 1_naAR_CESD   NAONNA|NA.ON NA&1   0.20 
#>  2       1 1_naAR_CESD   NAVAR.|      NA     0.92 
#>  3       1 1_naAR_CESD   Z.ON         NAONNA 0.35 
#>  4       1 1_naAR_CESD   Z.ON         NAVAR  0.14 
#>  5       1 1_naAR_CESD   Z.ON         NA     0.42 
#>  6       1 1_naAR_CESD   NA.WITH      NAONNA 0.22 
#>  7       1 1_naAR_CESD   NA.WITH      NAVAR  -0.23
#>  8       1 1_naAR_CESD   NAONNA.WITH  NAVAR  -0.13
#>  9       1 1_naAR_CESD   Means        NA     2.26 
#> 10       1 1_naAR_CESD   Means        NAONNA 1.08 
#> # ... with 206 more rows

Filtering parameters and parameter headings

As well as specifying columns, you can specify which parameters (parameter) or parameter headings (param_header) are shown.

mplus_compile(Mplus_file = models,
              display = c("dataset", "dataset_title", "paramHeader", "param", "est"),
              param_header = c("Z.ON", "NA.WITH"),
              parameter = c("NAONNA", "NAVAR"))
#> # A tibble: 30 x 5
#>    dataset dataset_title paramHeader param  est  
#>      <int> <chr>         <chr>       <chr>  <chr>
#>  1       1 1_naAR_CESD   Z.ON        NAONNA 0.35 
#>  2       1 1_naAR_CESD   Z.ON        NAVAR  0.14 
#>  3       1 1_naAR_CESD   NA.WITH     NAONNA 0.22 
#>  4       1 1_naAR_CESD   NA.WITH     NAVAR  -0.23
#>  5       1 1_naAR_CESD   NAONNA.WITH NAVAR  -0.13
#>  6       2 2_naAR_CESD   Z.ON        NAONNA -0.07
#>  7       2 2_naAR_CESD   Z.ON        NAVAR  0.05 
#>  8       2 2_naAR_CESD   NA.WITH     NAONNA 0.39 
#>  9       2 2_naAR_CESD   NA.WITH     NAVAR  0.52 
#> 10       2 2_naAR_CESD   NAONNA.WITH NAVAR  -0.04
#> # ... with 20 more rows

The function uses partial filtering, which means that all words that contain a specified string will be displayed (as shown below). This makes it easier to quickly extract multiple parameters or parameter headings, like those that end in “.WITH”. In this case it extracts NA.WITH, NAONNA.WITH, PA.WITH, etc.

mplus_compile(Mplus_file = models,
              param_header = c(".WITH"))
#> # A tibble: 36 x 13
#>    dataset dataset_title     T     N paramHeader param est   posterior_sd pval 
#>      <int> <chr>         <dbl> <dbl> <chr>       <chr> <chr> <chr>        <chr>
#>  1       1 1_naAR_CESD    2808    94 NA.WITH     NAON~ 0.22  0.16         0.10 
#>  2       1 1_naAR_CESD    2808    94 NA.WITH     NAVAR -0.23 0.12         0.03 
#>  3       1 1_naAR_CESD    2808    94 NAONNA.WITH NAVAR -0.13 0.17         0.23 
#>  4       2 2_naAR_CESD   21615   100 NA.WITH     NAON~ 0.39  0.11         0.00 
#>  5       2 2_naAR_CESD   21615   100 NA.WITH     NAVAR 0.52  0.08         0.00 
#>  6       2 2_naAR_CESD   21615   100 NAONNA.WITH NAVAR -0.04 0.13         0.37 
#>  7       3 3_naAR_QIDS   12355   118 NA.WITH     NAON~ 0.36  0.11         0.00 
#>  8       3 3_naAR_QIDS   12355   118 NA.WITH     NAVAR 0.53  0.07         0.00 
#>  9       3 3_naAR_QIDS   12355   118 NAONNA.WITH NAVAR 0.36  0.10         0.00 
#> 10       4 1_paAR_CESD    2808    94 PA.WITH     PAON~ -0.02 0.19         0.45 
#> # ... with 26 more rows, and 4 more variables: lower_2.5ci <chr>,
#> #   upper_2.5ci <chr>, sig <lgl>, BetweenWithin <chr>

The consequence is that it is possible that more parameters or parameter headings are displayed than expected. For example, if you are after the parameter “NA”, it will also display “NAONNA” or “NAVAR” as these contain “NA”.

mplus_compile(Mplus_file = models,
              display = c("dataset", "dataset_title", "paramHeader", "param", "est"),
              parameter = "NA")
#> # A tibble: 90 x 5
#>    dataset dataset_title paramHeader  param  est  
#>      <int> <chr>         <chr>        <chr>  <chr>
#>  1       1 1_naAR_CESD   NAONNA|NA.ON NA&1   0.20 
#>  2       1 1_naAR_CESD   NAVAR.|      NA     0.92 
#>  3       1 1_naAR_CESD   Z.ON         NAONNA 0.35 
#>  4       1 1_naAR_CESD   Z.ON         NAVAR  0.14 
#>  5       1 1_naAR_CESD   Z.ON         NA     0.42 
#>  6       1 1_naAR_CESD   NA.WITH      NAONNA 0.22 
#>  7       1 1_naAR_CESD   NA.WITH      NAVAR  -0.23
#>  8       1 1_naAR_CESD   NAONNA.WITH  NAVAR  -0.13
#>  9       1 1_naAR_CESD   Means        NA     2.26 
#> 10       1 1_naAR_CESD   Means        NAONNA 1.08 
#> # ... with 80 more rows

You can address this issue by using regular expressions (regex). There are many regex rules you can apply, but two useful ones are:

If a string STARTS with a particular set of characters, use ^.

So if a string starts with NA, use ^NA.

If a string ENDS with a particular set of characters, use $.

So if a string ends with NA, use NA$.

mplus_compile(Mplus_file = models,
              display = c("dataset", "dataset_title", "paramHeader", "param", "est"),
              parameter = "NA$")
#> # A tibble: 54 x 5
#>    dataset dataset_title paramHeader param  est  
#>      <int> <chr>         <chr>       <chr>  <chr>
#>  1       1 1_naAR_CESD   NAVAR.|     NA     0.92 
#>  2       1 1_naAR_CESD   Z.ON        NAONNA 0.35 
#>  3       1 1_naAR_CESD   Z.ON        NA     0.42 
#>  4       1 1_naAR_CESD   NA.WITH     NAONNA 0.22 
#>  5       1 1_naAR_CESD   Means       NA     2.26 
#>  6       1 1_naAR_CESD   Means       NAONNA 1.08 
#>  7       1 1_naAR_CESD   Variances   NA     1.00 
#>  8       1 1_naAR_CESD   Variances   NAONNA 1.00 
#>  9       1 1_naAR_CESD   R2          NA     0.08 
#> 10       2 2_naAR_CESD   NAVAR.|     NA     0.88 
#> # ... with 44 more rows

You can see that the ‘param’ column in the table above no longer contains NAVAR, as this string doesn’t end in NA. If you want to specify just “NA” and not “NAONNA”, use both ^ and $. This means the phrase must start and end with NA, and cannot contain anything else in the middle.

mplus_compile(Mplus_file = models,
              display = c("dataset", "dataset_title", "paramHeader", "param", "est"),
              parameter = "^NA$")
#> # A tibble: 30 x 5
#>    dataset dataset_title paramHeader param est  
#>      <int> <chr>         <chr>       <chr> <chr>
#>  1       1 1_naAR_CESD   NAVAR.|     NA    0.92 
#>  2       1 1_naAR_CESD   Z.ON        NA    0.42 
#>  3       1 1_naAR_CESD   Means       NA    2.26 
#>  4       1 1_naAR_CESD   Variances   NA    1.00 
#>  5       1 1_naAR_CESD   R2          NA    0.08 
#>  6       2 2_naAR_CESD   NAVAR.|     NA    0.88 
#>  7       2 2_naAR_CESD   Z.ON        NA    0.39 
#>  8       2 2_naAR_CESD   Means       NA    1.75 
#>  9       2 2_naAR_CESD   Variances   NA    1.00 
#> 10       2 2_naAR_CESD   R2          NA    0.12 
#> # ... with 20 more rows
…
